Homework 2: Regression Model Building
…
[1] 662  12

names(music_sub)

 [1] "popularity"       "genre"            "danceability"     "energy"          
 [5] "loudness"         "speechiness"      "acousticness"     "instrumentalness"
 [9] "liveness"         "valence"          "tempo"            "duration_ms"     

# another option
music %>% 
  select(-c(artist, title, album_name, album_release, mode))

# A tibble: 662 × 12
   popularity genre danceability energy loudness speechiness acousticness
        <dbl> <chr>        <dbl>  <dbl>    <dbl>       <dbl>        <dbl>
 1         98 pop          0.695  0.762    -3.50      0.0395      0.192  
 2         91 pop          0.816  0.63     -5.57      0.226       0.133  
 3         90 pop          0.798  0.675    -5.04      0.0442      0.0912 
 4         90 latin        0.548  0.653    -3.88      0.081       0.456  
 5         88 pop          0.76   0.479    -5.57      0.0466      0.556  
 6         87 pop          0.755  0.522    -4.37      0.0575      0.533  
 7         87 pop          0.717  0.653    -5.63      0.0658      0.229  
 8         87 pop          0.68   0.578    -5.80      0.04        0.331  
 9         86 pop          0.771  0.671    -5.62      0.0553      0.00929
10         86 latin        0.599  0.448    -6.31      0.0232      0.163  
# ℹ 652 more rows
# ℹ 5 more variables: instrumentalness <dbl>, liveness <dbl>, valence <dbl>,
#   tempo <dbl>, duration_ms <dbl>
…
